{"_embedded":{"enheter":[{"organisasjonsnummer":"916627939","navn":"- P A L M E R A -","organisasjonsform":{"kode":"FLI","beskrivelse":"Forening/lag/innretning","_links":{"self":{"href":"https://data.brreg.no/enhetsregisteret/api/organisasjonsformer/FLI"}}},"hjemmeside":"palmera-i-bergen.no","postadresse":{"land":"Norge","landkode":"NO","postnummer":"5033","poststed":"BERGEN","adresse":["c/o Lady Tatiana Lozano Prieto","Hans Hauges gate 37"],"kommune":"BERGEN","kommunenummer":"4601"},"registreringsdatoEnhetsregisteret":"2016-01-26","registrertIMvaregisteret":false,"naeringskode1":{"kode":"94.991","beskrivelse":"Aktiviteter i andre interesseorganisasjoner ikke nevnt annet sted"},"harRegistrertAntallAnsatte":false,"forretningsadresse":{"land":"Norge","landkode":"NO","postnummer":"5004","poststed":"BERGEN","adresse":["Strandgaten 208"],"kommune":"BERGEN","kommunenummer":"4601"},"stiftelsesdato":"2015-11-01","institusjonellSektorkode":{"kode":"7000","beskrivelse":"Ideelle organisasjoner"},"registrertIForetaksregisteret":false,"registrertIStiftelsesregisteret":false,"registrertIFrivillighetsregisteret":true,"konkurs":false,"underAvvikling":false,"underTvangsavviklingEllerTvangsopplosning":false,"maalform":"Bokmål","aktivitet":["Er et non-profit kunstnerstyrt visningsrom og kunstgalleri i","Bergen sentrum. Stiller ut samtidskunst fra lokale og","internasjonale kunstnere."],"_links":{"self":{"href":"https://data.brreg.no/enhetsregisteret/api/enheter/916627939"}}},{"organisasjonsnummer":"911963582","navn":"- TTT- WINES TORE EUGEN KRISTIANSEN DØDSBO","organisasjonsform":{"kode":"ENK","beskrivelse":"Enkeltpersonforetak","_links":{"self":{"href":"https://data.brreg.no/enhetsregisteret/api/organisasjonsformer/ENK"}}},"registreringsdatoEnhetsregisteret":"2013-05-25","registrertIMvaregisteret":false,"naeringskode1":{"kode":"46.341","beskrivelse":"Engroshandel med vin og brennevin"},"harRegistrertAntallAnsatte":false,"forretningsadresse":{"land":"Norge","landkode":"NO","postnummer":"1344","poststed":"HASLUM","adresse":["Hasselveien 16"],"kommune":"BÆRUM","kommunenummer":"3201"},"institusjonellSektorkode":{"kode":"8200","beskrivelse":"Personlig næringsdrivende"},"registrertIForetaksregisteret":false,"registrertIStiftelsesregisteret":false,"registrertIFrivillighetsregisteret":false,"konkurs":false,"underAvvikling":false,"underTvangsavviklingEllerTvangsopplosning":false,"maalform":"Bokmål","aktivitet":["Handelsvirksomhet innen vin, (broker), kursvirksomhet og reiser."],"_links":{"self":{"href":"https://data.brreg.no/enhetsregisteret/api/enheter/911963582"}}},{"organisasjonsnummer":"933365573","navn":"- ZOTKO .NO","organisasjonsform":{"kode":"ENK","beskrivelse":"Enkeltpersonforetak","_links":{"self":{"href":"https://data.brreg.no/enhetsregisteret/api/organisasjonsformer/ENK"}}},"registreringsdatoEnhetsregisteret":"2024-04-25","registrertIMvaregisteret":false,"naeringskode1":{"kode":"47.919","beskrivelse":"Postordre-/Internetthandel med annet spesialisert vareutvalg"},"harRegistrertAntallAnsatte":false,"forretningsadresse":{"land":"Norge","landkode":"NO","postnummer":"6652","poststed":"SURNADAL","adresse":["Follerøvegen 20"],"kommune":"SURNADAL","kommunenummer":"1566"},"institusjonellSektorkode":{"kode":"8200","beskrivelse":"Personlig næringsdrivende"},"registrertIForetaksregisteret":true,"registrertIStiftelsesregisteret":false,"registrertIFrivillighetsregisteret":false,"konkurs":false,"underAvvikling":false,"underTvangsavviklingEllerTvangsopplosning":false,"maalform":"Bokmål","aktivitet":["Salg av ferdiglaget kaffe og tedrikker med kaffemaskin."],"_links":{"self":{"href":"https://data.brreg.no/enhetsregisteret/api/enheter/933365573"}}},{"organisasjonsnummer":"988539473","navn":"-EBE- DATA Eyolf Berg","organisasjonsform":{"kode":"ENK","beskrivelse":"Enkeltpersonforetak","_links":{"self":{"href":"https://data.brreg.no/enhetsregisteret/api/organisasjonsformer/ENK"}}},"hjemmeside":"www.ebe-data.com","registreringsdatoEnhetsregisteret":"2005-08-20","registrertIMvaregisteret":false,"naeringskode1":{"kode":"62.020","beskrivelse":"Konsulentvirksomhet tilknyttet informasjonsteknologi"},"harRegistrertAntallAnsatte":false,"forretningsadresse":{"land":"Norge","landkode":"NO","postnummer":"3470","poststed":"SLEMMESTAD","adresse":["Bekkeliveien 5"],"kommune":"ASKER","kommunenummer":"3203"},"institusjonellSektorkode":{"kode":"8200","beskrivelse":"Personlig næringsdrivende"},"registrertIForetaksregisteret":false,"registrertIStiftelsesregisteret":false,"registrertIFrivillighetsregisteret":false,"konkurs":false,"underAvvikling":false,"underTvangsavviklingEllerTvangsopplosning":false,"maalform":"Bokmål","aktivitet":["Rådgivning innen IT, administrasjon og personalforvaltning,","databaseutvikling, kurs, tolke- og oversettelsestjenester."," "],"_links":{"self":{"href":"https://data.brreg.no/enhetsregisteret/api/enheter/988539473"}}},{"organisasjonsnummer":"989061593","navn":"-G- GROUP AS","organisasjonsform":{"kode":"AS","beskrivelse":"Aksjeselskap","_links":{"self":{"href":"https://data.brreg.no/enhetsregisteret/api/organisasjonsformer/AS"}}},"registreringsdatoEnhetsregisteret":"2006-01-23","registrertIMvaregisteret":false,"naeringskode1":{"kode":"62.020","beskrivelse":"Konsulentvirksomhet tilknyttet informasjonsteknologi"},"hjelpeenhetskode":{"kode":"70.100","beskrivelse":"Hovedkontortjenester"},"harRegistrertAntallAnsatte":false,"forretningsadresse":{"land":"Norge","landkode":"NO","postnummer":"0671","poststed":"OSLO","adresse":["c/o Gjørva","Hellerud gårdsvei 5B"],"kommune":"OSLO","kommunenummer":"0301"},"stiftelsesdato":"2005-10-01","institusjonellSektorkode":{"kode":"2100","beskrivelse":"Private aksjeselskaper mv."},"registrertIForetaksregisteret":true,"registrertIStiftelsesregisteret":false,"registrertIFrivillighetsregisteret":false,"sisteInnsendteAarsregnskap":"2023","konkurs":false,"underAvvikling":false,"underTvangsavviklingEllerTvangsopplosning":false,"maalform":"Bokmål","vedtektsdato":"2011-08-26","vedtektsfestetFormaal":["Investeringer, eiendom, konsulentvirksomhet og rådgivning innenfor","finansielle områder samt forretningsutvikling."],"aktivitet":["Investeringer, eiendom, konsulentvirksomhet og rådgivning innenfor","finansielle områder samt forretningsutvikling."],"_links":{"self":{"href":"https://data.brreg.no/enhetsregisteret/api/enheter/989061593"}}},{"organisasjonsnummer":"913460197","navn":"-MINUS AS","organisasjonsform":{"kode":"AS","beskrivelse":"Aksjeselskap","_links":{"self":{"href":"https://data.brreg.no/enhetsregisteret/api/organisasjonsformer/AS"}}},"registreringsdatoEnhetsregisteret":"2014-04-03","registrertIMvaregisteret":true,"naeringskode1":{"kode":"62.020","beskrivelse":"Konsulentvirksomhet tilknyttet informasjonsteknologi"},"antallAnsatte":15,"harRegistrertAntallAnsatte":true,"forretningsadresse":{"land":"Norge","landkode":"NO","postnummer":"0159","poststed":"OSLO","adresse":["Rosenkrantz' gate 10"],"kommune":"OSLO","kommunenummer":"0301"},"stiftelsesdato":"2014-03-05","institusjonellSektorkode":{"kode":"2100","beskrivelse":"Private aksjeselskaper mv."},"registrertIForetaksregisteret":true,"registrertIStiftelsesregisteret":false,"registrertIFrivillighetsregisteret":false,"sisteInnsendteAarsregnskap":"2023","konkurs":false,"underAvvikling":false,"underTvangsavviklingEllerTvangsopplosning":false,"maalform":"Bokmål","vedtektsdato":"2017-03-16","vedtektsfestetFormaal":["Konsulentvirksomhet tilknyttet informasjonsteknologi."],"aktivitet":["Konsulentvirksomhet knyttet til programvare. Utvikling av egne,","nettbaserte programvarer som tilbys som abonnementstjeneste til","bedrifter og private personer."],"_links":{"self":{"href":"https://data.brreg.no/enhetsregisteret/api/enheter/913460197"}}},{"organisasjonsnummer":"922936919","navn":"-VEIEN- MED ANITA HELLEBØ-STOREIDE","organisasjonsform":{"kode":"ENK","beskrivelse":"Enkeltpersonforetak","_links":{"self":{"href":"https://data.brreg.no/enhetsregisteret/api/organisasjonsformer/ENK"}}},"registreringsdatoEnhetsregisteret":"2019-06-21","registrertIMvaregisteret":false,"naeringskode1":{"kode":"96.090","beskrivelse":"Personlig tjenesteyting ikke nevnt annet sted"},"harRegistrertAntallAnsatte":false,"forretningsadresse":{"land":"Norge","landkode":"NO","postnummer":"1454","poststed":"FAGERSTRAND","adresse":["Strandlia 3C"],"kommune":"NESODDEN","kommunenummer":"3212"},"institusjonellSektorkode":{"kode":"8200","beskrivelse":"Personlig næringsdrivende"},"registrertIForetaksregisteret":true,"registrertIStiftelsesregisteret":false,"registrertIFrivillighetsregisteret":false,"konkurs":false,"underAvvikling":false,"underTvangsavviklingEllerTvangsopplosning":false,"maalform":"Bokmål","aktivitet":["Rådgivning og veiledningssamtaler."],"_links":{"self":{"href":"https://data.brreg.no/enhetsregisteret/api/enheter/922936919"}}},{"organisasjonsnummer":"995849364","navn":":-) INVEST AS","organisasjonsform":{"kode":"AS","beskrivelse":"Aksjeselskap","_links":{"self":{"href":"https://data.brreg.no/enhetsregisteret/api/organisasjonsformer/AS"}}},"registreringsdatoEnhetsregisteret":"2010-08-24","registrertIMvaregisteret":true,"naeringskode1":{"kode":"70.220","beskrivelse":"Bedriftsrådgivning og annen administrativ rådgivning"},"harRegistrertAntallAnsatte":true,"forretningsadresse":{"land":"Norge","landkode":"NO","postnummer":"5034","poststed":"BERGEN","adresse":["Skanselien 37"],"kommune":"BERGEN","kommunenummer":"4601"},"stiftelsesdato":"2010-08-18","institusjonellSektorkode":{"kode":"2100","beskrivelse":"Private aksjeselskaper mv."},"registrertIForetaksregisteret":true,"registrertIStiftelsesregisteret":false,"registrertIFrivillighetsregisteret":false,"sisteInnsendteAarsregnskap":"2023","konkurs":false,"underAvvikling":false,"underTvangsavviklingEllerTvangsopplosning":false,"maalform":"Bokmål","vedtektsdato":"2010-08-18","vedtektsfestetFormaal":["Å levere IT-tjenester og programvare, og det som dette måtte medføre.","Selskapet skal også kunne eie, eller på annen måte delta i andre","forretningstiltak."],"aktivitet":["Jobbe med IT prosjekter og utvikling av næringsvirksomhet og generelle","investeringer. Det vil da også eie aksjer i datterselskaper innen IT","og eiendom. Muligens eie eiendom selv som en investering."],"_links":{"self":{"href":"https://data.brreg.no/enhetsregisteret/api/enheter/995849364"}}},{"organisasjonsnummer":"925833088","navn":":INNSIKT","organisasjonsform":{"kode":"FLI","beskrivelse":"Forening/lag/innretning","_links":{"self":{"href":"https://data.brreg.no/enhetsregisteret/api/organisasjonsformer/FLI"}}},"hjemmeside":"www.innsikt-norge.com","registreringsdatoEnhetsregisteret":"2020-10-24","registrertIMvaregisteret":false,"naeringskode1":{"kode":"94.991","beskrivelse":"Aktiviteter i andre interesseorganisasjoner ikke nevnt annet sted"},"harRegistrertAntallAnsatte":false,"forretningsadresse":{"land":"Norge","landkode":"NO","postnummer":"3404","poststed":"LIER","adresse":["c/o Else Belgau","Sønderhellene 10"],"kommune":"LIER","kommunenummer":"3312"},"stiftelsesdato":"2020-10-02","institusjonellSektorkode":{"kode":"7000","beskrivelse":"Ideelle organisasjoner"},"registrertIForetaksregisteret":false,"registrertIStiftelsesregisteret":false,"registrertIFrivillighetsregisteret":true,"konkurs":false,"underAvvikling":false,"underTvangsavviklingEllerTvangsopplosning":false,"maalform":"Bokmål","aktivitet":["Foreningen har til formål å bidra til rehabilitering av innsatte i","norske fengsler og derved hindre tilbakefall etter løslatelse. Gjennom","samlinger i grupper med undervisning og reflekterende samtaler er","målet at de innsatte får et annet utgangspunkt for å håndtere sine","liv. Grunnlag for undervisning og metodikk er utdypet i tilgjengelig","prosjektbeskrivelse."],"_links":{"self":{"href":"https://data.brreg.no/enhetsregisteret/api/enheter/925833088"}}},{"organisasjonsnummer":"929943945","navn":"!FALSE INVESTMENTS AS","organisasjonsform":{"kode":"AS","beskrivelse":"Aksjeselskap","_links":{"self":{"href":"https://data.brreg.no/enhetsregisteret/api/organisasjonsformer/AS"}}},"registreringsdatoEnhetsregisteret":"2022-09-28","registrertIMvaregisteret":false,"naeringskode1":{"kode":"00.000","beskrivelse":"Uoppgitt"},"harRegistrertAntallAnsatte":false,"forretningsadresse":{"land":"Norge","landkode":"NO","postnummer":"7050","poststed":"TRONDHEIM","adresse":["Herman Krags veg 9"],"kommune":"TRONDHEIM","kommunenummer":"5001"},"stiftelsesdato":"2022-09-06","institusjonellSektorkode":{"kode":"2100","beskrivelse":"Private aksjeselskaper mv."},"registrertIForetaksregisteret":true,"registrertIStiftelsesregisteret":false,"registrertIFrivillighetsregisteret":false,"sisteInnsendteAarsregnskap":"2023","konkurs":false,"underAvvikling":false,"underTvangsavviklingEllerTvangsopplosning":false,"maalform":"Bokmål","vedtektsdato":"2022-09-06","vedtektsfestetFormaal":["Investere i selskaper og eiendom og alt annet som naturlig faller","sammen med dette, herunder å delta i andre selskaper med lignende","virksomhet, kjøp og salg av aksjer, eller på annen måte gjøre seg","interessert i andre foretagende."],"aktivitet":["Investere i andre selskaper og påta eventuelle konsulentoppdrag."],"_links":{"self":{"href":"https://data.brreg.no/enhetsregisteret/api/enheter/929943945"}}},{"organisasjonsnummer":"933643387","navn":"!WARNING! MUSIKKBAND","organisasjonsform":{"kode":"FLI","beskrivelse":"Forening/lag/innretning","_links":{"self":{"href":"https://data.brreg.no/enhetsregisteret/api/organisasjonsformer/FLI"}}},"registreringsdatoEnhetsregisteret":"2024-07-15","registrertIMvaregisteret":false,"naeringskode1":{"kode":"90.011","beskrivelse":"Utøvende kunstnere og underholdningsvirksomhet innen musikk"},"harRegistrertAntallAnsatte":false,"forretningsadresse":{"land":"Norge","landkode":"NO","postnummer":"8610","poststed":"MO I RANA","adresse":["c/o Petter Botn","Litlåsen 1"],"kommune":"RANA","kommunenummer":"1833"},"stiftelsesdato":"2024-06-10","institusjonellSektorkode":{"kode":"7000","beskrivelse":"Ideelle organisasjoner"},"registrertIForetaksregisteret":false,"registrertIStiftelsesregisteret":false,"registrertIFrivillighetsregisteret":false,"konkurs":false,"underAvvikling":false,"underTvangsavviklingEllerTvangsopplosning":false,"maalform":"Bokmål","aktivitet":["Spille musikkopptredener, produsere og utgi musikk."],"_links":{"self":{"href":"https://data.brreg.no/enhetsregisteret/api/enheter/933643387"}}},{"organisasjonsnummer":"994924974","navn":".:SOR-ESPORTS","organisasjonsform":{"kode":"FLI","beskrivelse":"Forening/lag/innretning","_links":{"self":{"href":"https://data.brreg.no/enhetsregisteret/api/organisasjonsformer/FLI"}}},"hjemmeside":"www.soldier.no","registreringsdatoEnhetsregisteret":"2010-01-05","registrertIMvaregisteret":false,"naeringskode1":{"kode":"94.991","beskrivelse":"Aktiviteter i andre interesseorganisasjoner ikke nevnt annet sted"},"harRegistrertAntallAnsatte":false,"forretningsadresse":{"land":"Norge","landkode":"NO","postnummer":"1407","poststed":"VINTERBRO","adresse":["c/o Bjørn-Hugo Hansen","Svalestien 43"],"kommune":"ÅS","kommunenummer":"3218"},"stiftelsesdato":"2007-01-01","institusjonellSektorkode":{"kode":"7000","beskrivelse":"Ideelle organisasjoner"},"registrertIForetaksregisteret":false,"registrertIStiftelsesregisteret":false,"registrertIFrivillighetsregisteret":false,"konkurs":false,"underAvvikling":false,"underTvangsavviklingEllerTvangsopplosning":false,"maalform":"Bokmål","aktivitet":[".:SoR-eSports har som formål å legge til rette for folk i alle aldre","som har e-sport som hobby. Vi jobber alle på frivillig basis og ser på","oss selv som en instans innenfor hele norges e-sport-samfunn."],"_links":{"self":{"href":"https://data.brreg.no/enhetsregisteret/api/enheter/994924974"}}},{"organisasjonsnummer":"927379759","navn":"... IN NORWAY CATO CHRISTENSEN","organisasjonsform":{"kode":"ENK","beskrivelse":"Enkeltpersonforetak","_links":{"self":{"href":"https://data.brreg.no/enhetsregisteret/api/organisasjonsformer/ENK"}}},"registreringsdatoEnhetsregisteret":"2021-07-05","registrertIMvaregisteret":false,"naeringskode1":{"kode":"79.110","beskrivelse":"Reisebyråvirksomhet"},"harRegistrertAntallAnsatte":false,"forretningsadresse":{"land":"Norge","landkode":"NO","postnummer":"3235","poststed":"SANDEFJORD","adresse":["c/o Cato Christensen","Gråtenveien 8B"],"kommune":"SANDEFJORD","kommunenummer":"3907"},"institusjonellSektorkode":{"kode":"8200","beskrivelse":"Personlig næringsdrivende"},"registrertIForetaksregisteret":false,"registrertIStiftelsesregisteret":false,"registrertIFrivillighetsregisteret":false,"sisteInnsendteAarsregnskap":"2022","konkurs":false,"underAvvikling":false,"underTvangsavviklingEllerTvangsopplosning":false,"maalform":"Bokmål","aktivitet":["Informasjons- og reisebyrå."],"_links":{"self":{"href":"https://data.brreg.no/enhetsregisteret/api/enheter/927379759"}}},{"organisasjonsnummer":"979168268","navn":"...BARE MODALEN","organisasjonsform":{"kode":"ENK","beskrivelse":"Enkeltpersonforetak","_links":{"self":{"href":"https://data.brreg.no/enhetsregisteret/api/organisasjonsformer/ENK"}}},"registreringsdatoEnhetsregisteret":"1997-08-27","registrertIMvaregisteret":true,"naeringskode1":{"kode":"33.120","beskrivelse":"Reparasjon av maskiner"},"harRegistrertAntallAnsatte":false,"forretningsadresse":{"land":"Norge","landkode":"NO","postnummer":"3514","poststed":"HØNEFOSS","adresse":["Færdenveien 26"],"kommune":"RINGERIKE","kommunenummer":"3305"},"institusjonellSektorkode":{"kode":"8200","beskrivelse":"Personlig næringsdrivende"},"registrertIForetaksregisteret":false,"registrertIStiftelsesregisteret":false,"registrertIFrivillighetsregisteret":false,"konkurs":false,"underAvvikling":false,"underTvangsavviklingEllerTvangsopplosning":false,"maalform":"Bokmål","aktivitet":["Maskinservice og veivedlikehold, kurs og eventsvirksomhet."],"_links":{"self":{"href":"https://data.brreg.no/enhetsregisteret/api/enheter/979168268"}}},{"organisasjonsnummer":"995783568","navn":"...BY CHAAT HOUSE LTD","organisasjonsform":{"kode":"UTLA","beskrivelse":"Utenlandsk enhet","_links":{"self":{"href":"https://data.brreg.no/enhetsregisteret/api/organisasjonsformer/UTLA"}}},"registreringsdatoEnhetsregisteret":"2010-09-07","registrertIMvaregisteret":false,"harRegistrertAntallAnsatte":false,"forretningsadresse":{"land":"Storbritannia","landkode":"GB","poststed":"UB13QN Southall","adresse":["33 Longford Avenue"]},"stiftelsesdato":"2010-06-27","registrertIForetaksregisteret":true,"registrertIStiftelsesregisteret":false,"registrertIFrivillighetsregisteret":false,"konkurs":false,"underAvvikling":false,"underTvangsavviklingEllerTvangsopplosning":false,"maalform":"Bokmål","vedtektsdato":"2010-06-27","vedtektsfestetFormaal":["Utenlandsk foretak."],"aktivitet":["Utenlandsk enhet."],"_links":{"self":{"href":"https://data.brreg.no/enhetsregisteret/api/enheter/995783568"}}},{"organisasjonsnummer":"819032262","navn":"...PIECE OF CAKE AS","organisasjonsform":{"kode":"AS","beskrivelse":"Aksjeselskap","_links":{"self":{"href":"https://data.brreg.no/enhetsregisteret/api/organisasjonsformer/AS"}}},"registreringsdatoEnhetsregisteret":"2017-05-22","registrertIMvaregisteret":false,"naeringskode1":{"kode":"10.710","beskrivelse":"Produksjon av brød og ferske konditorvarer"},"harRegistrertAntallAnsatte":true,"forretningsadresse":{"land":"Norge","landkode":"NO","postnummer":"1407","poststed":"VINTERBRO","adresse":["Nessetveien 108"],"kommune":"ÅS","kommunenummer":"3218"},"stiftelsesdato":"2017-03-04","institusjonellSektorkode":{"kode":"2100","beskrivelse":"Private aksjeselskaper mv."},"registrertIForetaksregisteret":true,"registrertIStiftelsesregisteret":false,"registrertIFrivillighetsregisteret":false,"sisteInnsendteAarsregnskap":"2023","konkurs":true,"konkursdato":"2024-05-21","underAvvikling":false,"underTvangsavviklingEllerTvangsopplosning":false,"maalform":"Bokmål","vedtektsdato":"2020-04-06","vedtektsfestetFormaal":["Å drive konditori og annen virksomhet som kan ha tilknytning til","dette. Deltagelse i annen forretningsvirksomhet og hva som står i","forbindelse hermed."],"aktivitet":["Drift av konditori."],"_links":{"self":{"href":"https://data.brreg.no/enhetsregisteret/api/enheter/819032262"}}},{"organisasjonsnummer":"933473759","navn":"...PIECE OF CAKE AS KONKURSBO","organisasjonsform":{"kode":"KBO","beskrivelse":"Konkursbo","_links":{"self":{"href":"https://data.brreg.no/enhetsregisteret/api/organisasjonsformer/KBO"}}},"postadresse":{"land":"Norge","landkode":"NO","postnummer":"1401","poststed":"SKI","adresse":["v/Adv. Harald Jahren","Postboks 34"],"kommune":"NORDRE FOLLO","kommunenummer":"3207"},"registreringsdatoEnhetsregisteret":"2024-05-21","registrertIMvaregisteret":true,"naeringskode1":{"kode":"10.710","beskrivelse":"Produksjon av brød og ferske konditorvarer"},"harRegistrertAntallAnsatte":false,"forretningsadresse":{"land":"Norge","landkode":"NO","postnummer":"1407","poststed":"VINTERBRO","adresse":["Nessetveien 108"],"kommune":"ÅS","kommunenummer":"3218"},"stiftelsesdato":"2024-05-21","registrertIForetaksregisteret":false,"registrertIStiftelsesregisteret":false,"registrertIFrivillighetsregisteret":false,"konkurs":false,"underAvvikling":false,"underTvangsavviklingEllerTvangsopplosning":false,"maalform":"Bokmål","aktivitet":["Konkursbo."],"_links":{"self":{"href":"https://data.brreg.no/enhetsregisteret/api/enheter/933473759"}}},{"organisasjonsnummer":"985894272","navn":"./CONFIGURE && MAKE RAMTON","organisasjonsform":{"kode":"ENK","beskrivelse":"Enkeltpersonforetak","_links":{"self":{"href":"https://data.brreg.no/enhetsregisteret/api/organisasjonsformer/ENK"}}},"hjemmeside":"www.configure.no","registreringsdatoEnhetsregisteret":"2003-07-28","registrertIMvaregisteret":true,"naeringskode1":{"kode":"63.120","beskrivelse":"Drift av web-portaler"},"harRegistrertAntallAnsatte":false,"forretningsadresse":{"land":"Norge","landkode":"NO","postnummer":"3370","poststed":"VIKERSUND","adresse":["Svarterud"],"kommune":"MODUM","kommunenummer":"3316"},"institusjonellSektorkode":{"kode":"8200","beskrivelse":"Personlig næringsdrivende"},"registrertIForetaksregisteret":true,"registrertIStiftelsesregisteret":false,"registrertIFrivillighetsregisteret":false,"konkurs":false,"underAvvikling":false,"underTvangsavviklingEllerTvangsopplosning":false,"maalform":"Bokmål","aktivitet":["Drift av databaser og systemutvikling."," "],"_links":{"self":{"href":"https://data.brreg.no/enhetsregisteret/api/enheter/985894272"}}},{"organisasjonsnummer":"916745079","navn":".A.R.M. CHAPTER 28","organisasjonsform":{"kode":"FLI","beskrivelse":"Forening/lag/innretning","_links":{"self":{"href":"https://data.brreg.no/enhetsregisteret/api/organisasjonsformer/FLI"}}},"registreringsdatoEnhetsregisteret":"2016-03-11","registrertIMvaregisteret":false,"naeringskode1":{"kode":"94.991","beskrivelse":"Aktiviteter i andre interesseorganisasjoner ikke nevnt annet sted"},"harRegistrertAntallAnsatte":false,"forretningsadresse":{"land":"Norge","landkode":"NO","postnummer":"7092","poststed":"TILLER","adresse":["c/o Perka Christer Skogseth","Arne Solbergs veg 36"],"kommune":"TRONDHEIM","kommunenummer":"5001"},"stiftelsesdato":"2016-02-14","institusjonellSektorkode":{"kode":"7000","beskrivelse":"Ideelle organisasjoner"},"registrertIForetaksregisteret":false,"registrertIStiftelsesregisteret":false,"registrertIFrivillighetsregisteret":true,"konkurs":false,"underAvvikling":false,"underTvangsavviklingEllerTvangsopplosning":false,"maalform":"Bokmål","aktivitet":["Organisasjon for tidligere rus avhengige og alkoholikere som kjører","motorsykkel."],"_links":{"self":{"href":"https://data.brreg.no/enhetsregisteret/api/enheter/916745079"}}},{"organisasjonsnummer":"923569839","navn":".EAGL TECHNOLOGIES AS","organisasjonsform":{"kode":"AS","beskrivelse":"Aksjeselskap","_links":{"self":{"href":"https://data.brreg.no/enhetsregisteret/api/organisasjonsformer/AS"}}},"registreringsdatoEnhetsregisteret":"2019-10-09","registrertIMvaregisteret":true,"naeringskode1":{"kode":"46.494","beskrivelse":"Engroshandel med sportsutstyr"},"antallAnsatte":5,"harRegistrertAntallAnsatte":true,"forretningsadresse":{"land":"Norge","landkode":"NO","postnummer":"1387","poststed":"ASKER","adresse":["Bleikerveien 17"],"kommune":"ASKER","kommunenummer":"3203"},"stiftelsesdato":"2019-10-09","institusjonellSektorkode":{"kode":"2100","beskrivelse":"Private aksjeselskaper mv."},"registrertIForetaksregisteret":true,"registrertIStiftelsesregisteret":false,"registrertIFrivillighetsregisteret":false,"sisteInnsendteAarsregnskap":"2023","konkurs":false,"underAvvikling":false,"underTvangsavviklingEllerTvangsopplosning":false,"maalform":"Bokmål","vedtektsdato":"2024-01-18","vedtektsfestetFormaal":["Salg/ utleie/ drift/ delingsteknologi av utstyr til golfparker,","kommunale og private tjenester."],"aktivitet":["Salg, utleie, drift, service av golf skateboard til ulike former.","Hovedsakelig golfparker."],"_links":{"self":{"href":"https://data.brreg.no/enhetsregisteret/api/enheter/923569839"}}}]},"_links":{"first":{"href":"https://data.brreg.no/enhetsregisteret/api/enheter?page=0&size=20"},"self":{"href":"https://data.brreg.no/enhetsregisteret/api/enheter"},"next":{"href":"https://data.brreg.no/enhetsregisteret/api/enheter?page=1&size=20"},"last":{"href":"https://data.brreg.no/enhetsregisteret/api/enheter?page=55356&size=20"}},"page":{"size":20,"totalElements":1107132,"totalPages":55357,"number":0}}