{"_embedded":{"underenheter":[{"organisasjonsnummer":"933489272","navn":"- ZOTKO .NO","organisasjonsform":{"kode":"BEDR","beskrivelse":"Underenhet til næringsdrivende og offentlig forvaltning","_links":{"self":{"href":"https://data.brreg.no/enhetsregisteret/api/organisasjonsformer/BEDR"}}},"registreringsdatoEnhetsregisteret":"2024-05-23","registrertIMvaregisteret":false,"naeringskode1":{"kode":"47.919","beskrivelse":"Postordre-/Internetthandel med annet spesialisert vareutvalg"},"harRegistrertAntallAnsatte":false,"overordnetEnhet":"933365573","oppstartsdato":"2024-06-01","beliggenhetsadresse":{"land":"Norge","landkode":"NO","postnummer":"6652","poststed":"SURNADAL","adresse":["Follerøvegen 20"],"kommune":"SURNADAL","kommunenummer":"1566"},"_links":{"self":{"href":"https://data.brreg.no/enhetsregisteret/api/underenheter/933489272"},"overordnetEnhet":{"href":"https://data.brreg.no/enhetsregisteret/api/enheter/933365573"}}},{"organisasjonsnummer":"995858266","navn":":-) PROSJEKTER","organisasjonsform":{"kode":"BEDR","beskrivelse":"Underenhet til næringsdrivende og offentlig forvaltning","_links":{"self":{"href":"https://data.brreg.no/enhetsregisteret/api/organisasjonsformer/BEDR"}}},"registreringsdatoEnhetsregisteret":"2010-08-25","registrertIMvaregisteret":false,"naeringskode1":{"kode":"70.220","beskrivelse":"Bedriftsrådgivning og annen administrativ rådgivning"},"harRegistrertAntallAnsatte":true,"overordnetEnhet":"995849364","oppstartsdato":"2010-07-01","beliggenhetsadresse":{"land":"Norge","landkode":"NO","postnummer":"5034","poststed":"BERGEN","adresse":["Skanselien 37"],"kommune":"BERGEN","kommunenummer":"4601"},"_links":{"self":{"href":"https://data.brreg.no/enhetsregisteret/api/underenheter/995858266"},"overordnetEnhet":{"href":"https://data.brreg.no/enhetsregisteret/api/enheter/995849364"}}},{"organisasjonsnummer":"925833371","navn":":INNSIKT","organisasjonsform":{"kode":"AAFY","beskrivelse":"Underenhet til ikke-næringsdrivende","_links":{"self":{"href":"https://data.brreg.no/enhetsregisteret/api/organisasjonsformer/AAFY"}}},"hjemmeside":"www.innsikt-norge.com","registreringsdatoEnhetsregisteret":"2020-10-24","registrertIMvaregisteret":false,"naeringskode1":{"kode":"94.991","beskrivelse":"Aktiviteter i andre interesseorganisasjoner ikke nevnt annet sted"},"harRegistrertAntallAnsatte":false,"overordnetEnhet":"925833088","oppstartsdato":"2020-10-24","beliggenhetsadresse":{"land":"Norge","landkode":"NO","postnummer":"3404","poststed":"LIER","adresse":["c/o Else Belgau","Sønderhellene 10"],"kommune":"LIER","kommunenummer":"3312"},"_links":{"self":{"href":"https://data.brreg.no/enhetsregisteret/api/underenheter/925833371"},"overordnetEnhet":{"href":"https://data.brreg.no/enhetsregisteret/api/enheter/925833088"}}},{"organisasjonsnummer":"930087440","navn":"!FALSE INVESTMENTS AS","organisasjonsform":{"kode":"BEDR","beskrivelse":"Underenhet til næringsdrivende og offentlig forvaltning","_links":{"self":{"href":"https://data.brreg.no/enhetsregisteret/api/organisasjonsformer/BEDR"}}},"registreringsdatoEnhetsregisteret":"2022-10-24","registrertIMvaregisteret":false,"naeringskode1":{"kode":"00.000","beskrivelse":"Uoppgitt"},"harRegistrertAntallAnsatte":false,"overordnetEnhet":"929943945","oppstartsdato":"2022-09-06","beliggenhetsadresse":{"land":"Norge","landkode":"NO","postnummer":"7050","poststed":"TRONDHEIM","adresse":["Herman Krags veg 9"],"kommune":"TRONDHEIM","kommunenummer":"5001"},"_links":{"self":{"href":"https://data.brreg.no/enhetsregisteret/api/underenheter/930087440"},"overordnetEnhet":{"href":"https://data.brreg.no/enhetsregisteret/api/enheter/929943945"}}},{"organisasjonsnummer":"833790072","navn":"!WARNING! MUSIKKBAND","organisasjonsform":{"kode":"AAFY","beskrivelse":"Underenhet til ikke-næringsdrivende","_links":{"self":{"href":"https://data.brreg.no/enhetsregisteret/api/organisasjonsformer/AAFY"}}},"registreringsdatoEnhetsregisteret":"2024-07-15","registrertIMvaregisteret":false,"naeringskode1":{"kode":"90.011","beskrivelse":"Utøvende kunstnere og underholdningsvirksomhet innen musikk"},"harRegistrertAntallAnsatte":false,"overordnetEnhet":"933643387","oppstartsdato":"2024-07-15","beliggenhetsadresse":{"land":"Norge","landkode":"NO","postnummer":"8610","poststed":"MO I RANA","adresse":["c/o Petter Botn","Litlåsen 1"],"kommune":"RANA","kommunenummer":"1833"},"_links":{"self":{"href":"https://data.brreg.no/enhetsregisteret/api/underenheter/833790072"},"overordnetEnhet":{"href":"https://data.brreg.no/enhetsregisteret/api/enheter/933643387"}}},{"organisasjonsnummer":"919549238","navn":"...BARE MODALEN","organisasjonsform":{"kode":"BEDR","beskrivelse":"Underenhet til næringsdrivende og offentlig forvaltning","_links":{"self":{"href":"https://data.brreg.no/enhetsregisteret/api/organisasjonsformer/BEDR"}}},"registreringsdatoEnhetsregisteret":"2017-09-12","registrertIMvaregisteret":false,"naeringskode1":{"kode":"33.120","beskrivelse":"Reparasjon av maskiner"},"harRegistrertAntallAnsatte":false,"overordnetEnhet":"979168268","oppstartsdato":"2017-07-05","beliggenhetsadresse":{"land":"Norge","landkode":"NO","postnummer":"3514","poststed":"HØNEFOSS","adresse":["Færdenveien 26"],"kommune":"RINGERIKE","kommunenummer":"3305"},"_links":{"self":{"href":"https://data.brreg.no/enhetsregisteret/api/underenheter/919549238"},"overordnetEnhet":{"href":"https://data.brreg.no/enhetsregisteret/api/enheter/979168268"}}},{"organisasjonsnummer":"933473775","navn":"...PIECE OF CAKE AS KONKURSBO","organisasjonsform":{"kode":"AAFY","beskrivelse":"Underenhet til ikke-næringsdrivende","_links":{"self":{"href":"https://data.brreg.no/enhetsregisteret/api/organisasjonsformer/AAFY"}}},"postadresse":{"land":"Norge","landkode":"NO","postnummer":"1401","poststed":"SKI","adresse":["v/Adv. Harald Jahren","Postboks 34"],"kommune":"NORDRE FOLLO","kommunenummer":"3207"},"registreringsdatoEnhetsregisteret":"2024-05-21","registrertIMvaregisteret":false,"harRegistrertAntallAnsatte":false,"overordnetEnhet":"933473759","oppstartsdato":"2024-05-21","beliggenhetsadresse":{"land":"Norge","landkode":"NO","postnummer":"1407","poststed":"VINTERBRO","adresse":["Nessetveien 108"],"kommune":"ÅS","kommunenummer":"3218"},"_links":{"self":{"href":"https://data.brreg.no/enhetsregisteret/api/underenheter/933473775"},"overordnetEnhet":{"href":"https://data.brreg.no/enhetsregisteret/api/enheter/933473759"}}},{"organisasjonsnummer":"929904303","navn":"./CONFIGURE && MAKE RAMTON","organisasjonsform":{"kode":"BEDR","beskrivelse":"Underenhet til næringsdrivende og offentlig forvaltning","_links":{"self":{"href":"https://data.brreg.no/enhetsregisteret/api/organisasjonsformer/BEDR"}}},"registreringsdatoEnhetsregisteret":"2022-09-23","registrertIMvaregisteret":false,"naeringskode1":{"kode":"63.120","beskrivelse":"Drift av web-portaler"},"harRegistrertAntallAnsatte":false,"overordnetEnhet":"985894272","oppstartsdato":"2022-05-01","beliggenhetsadresse":{"land":"Norge","landkode":"NO","postnummer":"3370","poststed":"VIKERSUND","adresse":["Svarterud"],"kommune":"MODUM","kommunenummer":"3316"},"_links":{"self":{"href":"https://data.brreg.no/enhetsregisteret/api/underenheter/929904303"},"overordnetEnhet":{"href":"https://data.brreg.no/enhetsregisteret/api/enheter/985894272"}}},{"organisasjonsnummer":"923603263","navn":".EAGL TECHNOLOGIES AS","organisasjonsform":{"kode":"BEDR","beskrivelse":"Underenhet til næringsdrivende og offentlig forvaltning","_links":{"self":{"href":"https://data.brreg.no/enhetsregisteret/api/organisasjonsformer/BEDR"}}},"registreringsdatoEnhetsregisteret":"2019-10-14","registrertIMvaregisteret":false,"naeringskode1":{"kode":"46.494","beskrivelse":"Engroshandel med sportsutstyr"},"antallAnsatte":5,"harRegistrertAntallAnsatte":true,"overordnetEnhet":"923569839","oppstartsdato":"2019-09-04","beliggenhetsadresse":{"land":"Norge","landkode":"NO","postnummer":"1387","poststed":"ASKER","adresse":["Bleikerveien 17"],"kommune":"ASKER","kommunenummer":"3203"},"_links":{"self":{"href":"https://data.brreg.no/enhetsregisteret/api/underenheter/923603263"},"overordnetEnhet":{"href":"https://data.brreg.no/enhetsregisteret/api/enheter/923569839"}}},{"organisasjonsnummer":"833235672","navn":".RENT AS TVANGSAVVIKLINGSBO","organisasjonsform":{"kode":"AAFY","beskrivelse":"Underenhet til ikke-næringsdrivende","_links":{"self":{"href":"https://data.brreg.no/enhetsregisteret/api/organisasjonsformer/AAFY"}}},"postadresse":{"land":"Norge","landkode":"NO","postnummer":"0230","poststed":"OSLO","adresse":["v/Adv. Anne Gro Enger","Postboks 2944 Solli"],"kommune":"OSLO","kommunenummer":"0301"},"registreringsdatoEnhetsregisteret":"2024-04-03","registrertIMvaregisteret":false,"harRegistrertAntallAnsatte":false,"overordnetEnhet":"933235653","oppstartsdato":"2024-04-03","beliggenhetsadresse":{"land":"Norge","landkode":"NO","postnummer":"0186","poststed":"OSLO","adresse":["Christian Krohgs gate 1"],"kommune":"OSLO","kommunenummer":"0301"},"_links":{"self":{"href":"https://data.brreg.no/enhetsregisteret/api/underenheter/833235672"},"overordnetEnhet":{"href":"https://data.brreg.no/enhetsregisteret/api/enheter/933235653"}}},{"organisasjonsnummer":"912943127","navn":"'GODFOTEN' COLETTE GILLIBERT","organisasjonsform":{"kode":"BEDR","beskrivelse":"Underenhet til næringsdrivende og offentlig forvaltning","_links":{"self":{"href":"https://data.brreg.no/enhetsregisteret/api/organisasjonsformer/BEDR"}}},"registreringsdatoEnhetsregisteret":"2013-12-19","registrertIMvaregisteret":false,"naeringskode1":{"kode":"86.909","beskrivelse":"Andre helsetjenester"},"harRegistrertAntallAnsatte":false,"overordnetEnhet":"986437436","oppstartsdato":"2012-01-01","beliggenhetsadresse":{"land":"Norge","landkode":"NO","postnummer":"4018","poststed":"STAVANGER","adresse":["Snarehaugen 74B"],"kommune":"STAVANGER","kommunenummer":"1103"},"_links":{"self":{"href":"https://data.brreg.no/enhetsregisteret/api/underenheter/912943127"},"overordnetEnhet":{"href":"https://data.brreg.no/enhetsregisteret/api/enheter/986437436"}}},{"organisasjonsnummer":"933176851","navn":"'L TACO NYSVEEN-WAARIE","organisasjonsform":{"kode":"BEDR","beskrivelse":"Underenhet til næringsdrivende og offentlig forvaltning","_links":{"self":{"href":"https://data.brreg.no/enhetsregisteret/api/organisasjonsformer/BEDR"}}},"registreringsdatoEnhetsregisteret":"2024-03-16","registrertIMvaregisteret":false,"naeringskode1":{"kode":"56.210","beskrivelse":"Cateringvirksomhet"},"harRegistrertAntallAnsatte":false,"overordnetEnhet":"933127842","oppstartsdato":"2024-02-28","beliggenhetsadresse":{"land":"Norge","landkode":"NO","postnummer":"3961","poststed":"STATHELLE","adresse":["Olav Kyrres vei 6B"],"kommune":"BAMBLE","kommunenummer":"4012"},"_links":{"self":{"href":"https://data.brreg.no/enhetsregisteret/api/underenheter/933176851"},"overordnetEnhet":{"href":"https://data.brreg.no/enhetsregisteret/api/enheter/933127842"}}},{"organisasjonsnummer":"931562282","navn":"'LIFT' M...UP AS","organisasjonsform":{"kode":"BEDR","beskrivelse":"Underenhet til næringsdrivende og offentlig forvaltning","_links":{"self":{"href":"https://data.brreg.no/enhetsregisteret/api/organisasjonsformer/BEDR"}}},"registreringsdatoEnhetsregisteret":"2023-06-12","registrertIMvaregisteret":false,"naeringskode1":{"kode":"88.999","beskrivelse":"Andre sosialtjenester uten botilbud"},"harRegistrertAntallAnsatte":false,"overordnetEnhet":"931537741","oppstartsdato":"2023-06-01","beliggenhetsadresse":{"land":"Norge","landkode":"NO","postnummer":"6800","poststed":"FØRDE","adresse":["Angedalsvegen 6"],"kommune":"SUNNFJORD","kommunenummer":"4647"},"_links":{"self":{"href":"https://data.brreg.no/enhetsregisteret/api/underenheter/931562282"},"overordnetEnhet":{"href":"https://data.brreg.no/enhetsregisteret/api/enheter/931537741"}}},{"organisasjonsnummer":"998060575","navn":"'N JOHAN SOMMERSCHILD","organisasjonsform":{"kode":"BEDR","beskrivelse":"Underenhet til næringsdrivende og offentlig forvaltning","_links":{"self":{"href":"https://data.brreg.no/enhetsregisteret/api/organisasjonsformer/BEDR"}}},"registreringsdatoEnhetsregisteret":"2012-03-06","registrertIMvaregisteret":false,"naeringskode1":{"kode":"81.300","beskrivelse":"Beplantning av hager og parkanlegg"},"harRegistrertAntallAnsatte":false,"overordnetEnhet":"998040442","oppstartsdato":"2012-03-15","beliggenhetsadresse":{"land":"Norge","landkode":"NO","postnummer":"7350","poststed":"BUVIKA","adresse":["Skogaromvegen 6"],"kommune":"SKAUN","kommunenummer":"5029"},"_links":{"self":{"href":"https://data.brreg.no/enhetsregisteret/api/underenheter/998060575"},"overordnetEnhet":{"href":"https://data.brreg.no/enhetsregisteret/api/enheter/998040442"}}},{"organisasjonsnummer":"930464384","navn":"(BENSTUDIO) NUBDALSENG","organisasjonsform":{"kode":"BEDR","beskrivelse":"Underenhet til næringsdrivende og offentlig forvaltning","_links":{"self":{"href":"https://data.brreg.no/enhetsregisteret/api/organisasjonsformer/BEDR"}}},"registreringsdatoEnhetsregisteret":"2022-12-13","registrertIMvaregisteret":false,"naeringskode1":{"kode":"01.620","beskrivelse":"Tjenester tilknyttet husdyrhold"},"harRegistrertAntallAnsatte":false,"overordnetEnhet":"930214396","oppstartsdato":"2022-10-20","beliggenhetsadresse":{"land":"Norge","landkode":"NO","postnummer":"7860","poststed":"SKAGE I NAMDALEN","adresse":["Berg 146"],"kommune":"OVERHALLA","kommunenummer":"5047"},"_links":{"self":{"href":"https://data.brreg.no/enhetsregisteret/api/underenheter/930464384"},"overordnetEnhet":{"href":"https://data.brreg.no/enhetsregisteret/api/enheter/930214396"}}},{"organisasjonsnummer":"932804824","navn":"(GAUSA DITT KRAFT SELSKAP) LANGSETH","organisasjonsform":{"kode":"BEDR","beskrivelse":"Underenhet til næringsdrivende og offentlig forvaltning","_links":{"self":{"href":"https://data.brreg.no/enhetsregisteret/api/organisasjonsformer/BEDR"}}},"registreringsdatoEnhetsregisteret":"2024-01-11","registrertIMvaregisteret":false,"naeringskode1":{"kode":"35.140","beskrivelse":"Handel med elektrisitet"},"harRegistrertAntallAnsatte":false,"overordnetEnhet":"932617455","oppstartsdato":"2023-11-28","beliggenhetsadresse":{"land":"Norge","landkode":"NO","postnummer":"2652","poststed":"SVINGVOLL","adresse":["Engjomsvegen 75"],"kommune":"GAUSDAL","kommunenummer":"3441"},"_links":{"self":{"href":"https://data.brreg.no/enhetsregisteret/api/underenheter/932804824"},"overordnetEnhet":{"href":"https://data.brreg.no/enhetsregisteret/api/enheter/932617455"}}},{"organisasjonsnummer":"995331896","navn":"(NYE) ELNESFISK AS","organisasjonsform":{"kode":"BEDR","beskrivelse":"Underenhet til næringsdrivende og offentlig forvaltning","_links":{"self":{"href":"https://data.brreg.no/enhetsregisteret/api/organisasjonsformer/BEDR"}}},"registreringsdatoEnhetsregisteret":"2010-03-24","registrertIMvaregisteret":false,"naeringskode1":{"kode":"03.111","beskrivelse":"Hav- og kystfiske"},"harRegistrertAntallAnsatte":false,"overordnetEnhet":"930357421","oppstartsdato":"2010-03-23","datoEierskifte":"2022-12-07","beliggenhetsadresse":{"land":"Norge","landkode":"NO","postnummer":"6440","poststed":"ELNESVÅGEN","adresse":["Knorrholmen 16"],"kommune":"HUSTADVIKA","kommunenummer":"1579"},"_links":{"self":{"href":"https://data.brreg.no/enhetsregisteret/api/underenheter/995331896"},"overordnetEnhet":{"href":"https://data.brreg.no/enhetsregisteret/api/enheter/930357421"}}},{"organisasjonsnummer":"830310592","navn":"(SH) SALAS GRUPPER AS","organisasjonsform":{"kode":"BEDR","beskrivelse":"Underenhet til næringsdrivende og offentlig forvaltning","_links":{"self":{"href":"https://data.brreg.no/enhetsregisteret/api/organisasjonsformer/BEDR"}}},"registreringsdatoEnhetsregisteret":"2022-11-26","registrertIMvaregisteret":false,"naeringskode1":{"kode":"47.591","beskrivelse":"Butikkhandel med møbler"},"harRegistrertAntallAnsatte":false,"overordnetEnhet":"930274755","oppstartsdato":"2022-11-14","beliggenhetsadresse":{"land":"Norge","landkode":"NO","postnummer":"7066","poststed":"TRONDHEIM","adresse":["Ladeveien 23"],"kommune":"TRONDHEIM","kommunenummer":"5001"},"_links":{"self":{"href":"https://data.brreg.no/enhetsregisteret/api/underenheter/830310592"},"overordnetEnhet":{"href":"https://data.brreg.no/enhetsregisteret/api/enheter/930274755"}}},{"organisasjonsnummer":"986903917","navn":"(TXT) ARNESTAD.ORG","organisasjonsform":{"kode":"BEDR","beskrivelse":"Underenhet til næringsdrivende og offentlig forvaltning","_links":{"self":{"href":"https://data.brreg.no/enhetsregisteret/api/organisasjonsformer/BEDR"}}},"hjemmeside":"www.arnestad.org","registreringsdatoEnhetsregisteret":"2004-05-24","registrertIMvaregisteret":false,"naeringskode1":{"kode":"74.300","beskrivelse":"Oversettelses- og tolkevirksomhet"},"harRegistrertAntallAnsatte":false,"overordnetEnhet":"986804641","oppstartsdato":"2004-04-15","beliggenhetsadresse":{"land":"Norge","landkode":"NO","postnummer":"0674","poststed":"OSLO","adresse":["v/Kjell Arnestad","Leilighet 832","Haugerudveien 82"],"kommune":"OSLO","kommunenummer":"0301"},"_links":{"self":{"href":"https://data.brreg.no/enhetsregisteret/api/underenheter/986903917"},"overordnetEnhet":{"href":"https://data.brreg.no/enhetsregisteret/api/enheter/986804641"}}},{"organisasjonsnummer":"926035525","navn":"(U)SERIØST","organisasjonsform":{"kode":"AAFY","beskrivelse":"Underenhet til ikke-næringsdrivende","_links":{"self":{"href":"https://data.brreg.no/enhetsregisteret/api/organisasjonsformer/AAFY"}}},"registreringsdatoEnhetsregisteret":"2020-11-25","registrertIMvaregisteret":false,"naeringskode1":{"kode":"94.991","beskrivelse":"Aktiviteter i andre interesseorganisasjoner ikke nevnt annet sted"},"harRegistrertAntallAnsatte":false,"overordnetEnhet":"926033549","oppstartsdato":"2020-11-25","beliggenhetsadresse":{"land":"Norge","landkode":"NO","postnummer":"8026","poststed":"BODØ","adresse":["Universitetsalléen 11"],"kommune":"BODØ","kommunenummer":"1804"},"_links":{"self":{"href":"https://data.brreg.no/enhetsregisteret/api/underenheter/926035525"},"overordnetEnhet":{"href":"https://data.brreg.no/enhetsregisteret/api/enheter/926033549"}}}]},"_links":{"first":{"href":"https://data.brreg.no/enhetsregisteret/api/underenheter?page=0&size=20"},"self":{"href":"https://data.brreg.no/enhetsregisteret/api/underenheter"},"next":{"href":"https://data.brreg.no/enhetsregisteret/api/underenheter?page=1&size=20"},"last":{"href":"https://data.brreg.no/enhetsregisteret/api/underenheter?page=40644&size=20"}},"page":{"size":20,"totalElements":812900,"totalPages":40645,"number":0}}